<?xml version="1.0" encoding="UTF-8" standalone="no"?>
<!-- Created with Inkscape (http://www.inkscape.org/) -->

<svg
   xmlns:dc="http://purl.org/dc/elements/1.1/"
   xmlns:cc="http://creativecommons.org/ns#"
   xmlns:rdf="http://www.w3.org/1999/02/22-rdf-syntax-ns#"
   xmlns:svg="http://www.w3.org/2000/svg"
   xmlns="http://www.w3.org/2000/svg"
   xmlns:sodipodi="http://sodipodi.sourceforge.net/DTD/sodipodi-0.dtd"
   xmlns:inkscape="http://www.inkscape.org/namespaces/inkscape"
   width="24"
   height="24"
   id="svg2"
   version="1.1"
   inkscape:version="0.92.4 (5da689c313, 2019-01-14)"
   sodipodi:docname="emblem-mail.svg">
  <defs
     id="defs4" />
  <sodipodi:namedview
     id="base"
     pagecolor="#ffffff"
     bordercolor="#666666"
     borderopacity="1.0"
     inkscape:pageopacity="0.0"
     inkscape:pageshadow="2"
     inkscape:zoom="11.313709"
     inkscape:cx="3.1499354"
     inkscape:cy="14.348043"
     inkscape:document-units="px"
     inkscape:current-layer="layer1"
     showgrid="false"
     inkscape:window-width="1280"
     inkscape:window-height="911"
     inkscape:window-x="0"
     inkscape:window-y="25"
     inkscape:window-maximized="1"
     showguides="true"
     inkscape:guide-bbox="true">
    <sodipodi:guide
       position="4.5,19.500017"
       orientation="15,0"
       id="guide3264"
       inkscape:locked="false" />
    <sodipodi:guide
       position="4.5,4.5000174"
       orientation="0,15"
       id="guide3266"
       inkscape:locked="false" />
    <sodipodi:guide
       position="19.5,4.5000174"
       orientation="-15,0"
       id="guide3268"
       inkscape:locked="false" />
    <sodipodi:guide
       position="19.5,19.500017"
       orientation="0,-15"
       id="guide3270"
       inkscape:locked="false" />
  </sodipodi:namedview>
  <metadata
     id="metadata7">
    <rdf:RDF>
      <cc:Work
         rdf:about="">
        <dc:format>image/svg+xml</dc:format>
        <dc:type
           rdf:resource="http://purl.org/dc/dcmitype/StillImage" />
        <dc:title />
      </cc:Work>
    </rdf:RDF>
  </metadata>
  <g
     inkscape:label="Capa 1"
     inkscape:groupmode="layer"
     id="layer1"
     transform="translate(0,-1028.3622)">
    <rect
       style="fill:none;stroke:none"
       id="rect3304"
       width="2"
       height="15"
       x="19.5"
       y="1032.8622" />
    <rect
       y="1032.8622"
       x="2.5"
       height="15"
       width="2"
       id="rect3302"
       style="fill:none;stroke:none" />
    <rect
       style="fill:none;stroke:none"
       id="rect3260"
       width="15"
       height="15"
       x="4.5"
       y="1032.8622" />
    <path
       style="fill:#1074f5;fill-opacity:0.94117647;fill-rule:evenodd;stroke:none"
       d="m 2.5,1032.8622 0,15 6.666992,-7.4994 L 2.5,1032.8622 Z"
       id="path4127"
       inkscape:connector-curvature="0" />
    <path
       style="fill:#1074ff;fill-opacity:0.94117647;fill-rule:evenodd;stroke:none"
       d="m 2.5,1032.8622 8.821967,8.5 0.678033,0.65 0.678034,-0.65 8.821966,-8.5 z"
       id="path4125"
       inkscape:connector-curvature="0"
       sodipodi:nodetypes="cccccc" />
    <path
       style="fill:#1074f5;fill-opacity:0.94117647;fill-rule:evenodd;stroke:none"
       d="m 21.5,1032.8622 -6.666992,7.5006 6.666992,7.4994 0,-15 z"
       id="path4123"
       inkscape:connector-curvature="0" />
    <path
       style="fill:#1074f5;fill-opacity:0.94117647;fill-rule:evenodd;stroke:none"
       d="m 10.222656,1041.5468 -7.611328,6.3154 18.777344,0 -7.611328,-6.3154 L 12,1043.2304 Z"
       id="rect3260-9"
       inkscape:connector-curvature="0"
       sodipodi:nodetypes="cccccc" />
  </g>
</svg>
